{
    "api": "Identity",
    "code": "ID",
    "imageUrl": "",
    "title": "Identiteit",
    "description": "Persoonlijke gegevens",
    "version": "0.0",
    "updated": "2016-11-16 13:33:42",
    "role": "GAST",
    "userName": "gast",
    "firstName": "",
    "lastName": "",
    "phoneWork": "",
    "phoneHome": "",
    "mobile": "",
    "email": "",
    "street": "",
    "postalCode": "",
    "city": "",
    "function": "Bezoeker",
    "loggedIn": false
}